{
    "name": "EmberSC",
    "base": "/api/v1",
	"port": 10000,
    "good": {
        "subscribers": {
            "/tmp/logs/": ["request", "log"]
        }
    },
    "lout" : {
        "endpoint": "/api/docs"
    },
    "mrstore" : {
        "type": "nedb"
    }
}
